^C:\USERS\JOHN\DOCUMENTS\VISUAL STUDIO 2012\PROJECTS\BINARYSEARCHTREE\BINARYSEARCHTREE\BINARYNODETREE.CPP|C:\USERS\JOHN\DOCUMENTS\VISUAL STUDIO 2012\PROJECTS\BINARYSEARCHTREE\BINARYSEARCHTREE\BINARYSEARCHTREE.CPP|C:\USERS\JOHN\DOCUMENTS\VISUAL STUDIO 2012\PROJECTS\BINARYSEARCHTREE\BINARYSEARCHTREE\MAIN.CPP
C:\USERS\JOHN\DOCUMENTS\VISUAL STUDIO 2012\PROJECTS\BINARYSEARCHTREE\BINARYSEARCHTREE\DEBUG\BINARYNODETREE.OBJ
C:\USERS\JOHN\DOCUMENTS\VISUAL STUDIO 2012\PROJECTS\BINARYSEARCHTREE\BINARYSEARCHTREE\DEBUG\BINARYSEARCHTREE.OBJ
C:\USERS\JOHN\DOCUMENTS\VISUAL STUDIO 2012\PROJECTS\BINARYSEARCHTREE\BINARYSEARCHTREE\DEBUG\MAIN.OBJ
^C:\USERS\JOHN\DOCUMENTS\VISUAL STUDIO 2012\PROJECTS\BINARYSEARCHTREE\BINARYSEARCHTREE\BINARYNODETREE.CPP
C:\USERS\JOHN\DOCUMENTS\VISUAL STUDIO 2012\PROJECTS\BINARYSEARCHTREE\BINARYSEARCHTREE\DEBUG\VC110.PDB
^C:\USERS\JOHN\DOCUMENTS\VISUAL STUDIO 2012\PROJECTS\BINARYSEARCHTREE\BINARYSEARCHTREE\BINARYSEARCHTREE.CPP
C:\USERS\JOHN\DOCUMENTS\VISUAL STUDIO 2012\PROJECTS\BINARYSEARCHTREE\BINARYSEARCHTREE\DEBUG\VC110.PDB
^C:\USERS\JOHN\DOCUMENTS\VISUAL STUDIO 2012\PROJECTS\BINARYSEARCHTREE\BINARYSEARCHTREE\MAIN.CPP
C:\USERS\JOHN\DOCUMENTS\VISUAL STUDIO 2012\PROJECTS\BINARYSEARCHTREE\BINARYSEARCHTREE\DEBUG\VC110.PDB
C:\USERS\JOHN\DOCUMENTS\VISUAL STUDIO 2012\PROJECTS\BINARYSEARCHTREE\BINARYSEARCHTREE\DEBUG\MAIN.OBJ
